第一次作业你的报告题目
…
4
探究哪个区域房屋供应数量最多

## # A tibble: 87 × 2
##    property_region count
##    <chr>           <int>
##  1 白沙洲            167
##  2 盘龙城            126
##  3 四新              116
##  4 光谷东            112
##  5 金银湖             97
##  6 后湖               86
##  7 青山               85
##  8 王家湾             78
##  9 塔子湖             71
## 10 珞狮南路           67
## # ℹ 77 more rows
…
5
探究哪个区域的房产均价最高

## # A tibble: 87 × 2
##    property_region avg_price_sqm
##    <chr>                   <dbl>
##  1 VR看装修               38351 
##  2 中北路                 32728.
##  3 水果湖                 28562.
##  4 黄埔永清               24957.
##  5 三阳路                 24777.
##  6 南湖沃尔玛             24181.
##  7 虎泉杨家湾             23902.
##  8 CBD西北湖              22272.
##  9 楚河汉街               21958.
## 10 关山大道               21480.
## # ℹ 77 more rows
…
6
探究哪个区域的房产平均面积最大

## # A tibble: 87 × 2
##    property_region avg_building_area
##    <chr>                       <dbl>
##  1 汉口北                       125.
##  2 中北路                       125.
##  3 VR看装修                     125.
##  4 中法生态城                   122.
##  5 楚河汉街                     121.
##  6 卓刀泉                       120.
##  7 国际百纳                     118.
##  8 蔡甸其它                     117.
##  9 CBD西北湖                    117.
## 10 黄家湖                       117.
## # ℹ 77 more rows
…
